{
  "meta": {
    "chronografVersion": "1.8.6",
    "sources": {
      "1": {
        "name": "Influx 1",
        "link": "/chronograf/v1/sources/1"
      }
    }
  },
  "dashboard": {
    "id": "2",
    "cells": [
      {
        "i": "9dcd3fad-3b1f-4058-b6b3-3e8a62395e66",
        "x": 4,
        "y": 0,
        "w": 4,
        "h": 5,
        "name": "JVM Memory",
        "queries": [
          {
            "query": "SELECT pool.g1_survivor_space/1000000,\n       pool.metaspace/1000000,\n       pool.g1_eden_space/1000000,\n       pool.g1_old_gen/1000000\nFROM \"telegraf\".\"autogen\".\"vm.memory\"\nWHERE time > :dashboardTime:",
            "queryConfig": {
              "database": "",
              "measurement": "",
              "retentionPolicy": "",
              "fields": [],
              "tags": {},
              "groupBy": {
                "time": "",
                "tags": []
              },
              "areTagsAccepted": false,
              "rawText": "SELECT pool.g1_survivor_space/1000000,\n       pool.metaspace/1000000,\n       pool.g1_eden_space/1000000,\n       pool.g1_old_gen/1000000\nFROM \"telegraf\".\"autogen\".\"vm.memory\"\nWHERE time > :dashboardTime:",
              "range": null,
              "shifts": null
            },
            "source": "",
            "type": "influxql"
          }
        ],
        "axes": {
          "x": {
            "bounds": ["", ""],
            "label": "",
            "prefix": "",
            "suffix": "",
            "base": "10",
            "scale": "linear"
          },
          "y": {
            "bounds": ["", ""],
            "label": "",
            "prefix": "",
            "suffix": "",
            "base": "10",
            "scale": "linear"
          },
          "y2": {
            "bounds": ["", ""],
            "label": "",
            "prefix": "",
            "suffix": "",
            "base": "10",
            "scale": "linear"
          }
        },
        "type": "line",
        "colors": [
          {
            "id": "207e30f0-6254-4460-9d56-7ae6121c7f18",
            "type": "scale",
            "hex": "#31C0F6",
            "name": "Nineteen Eighty Four",
            "value": "0"
          },
          {
            "id": "6b87716d-6675-45d2-9790-98063950bfa4",
            "type": "scale",
            "hex": "#A500A5",
            "name": "Nineteen Eighty Four",
            "value": "0"
          },
          {
            "id": "39de9a1b-9650-40f0-a940-70a688dd40c8",
            "type": "scale",
            "hex": "#FF7E27",
            "name": "Nineteen Eighty Four",
            "value": "0"
          }
        ],
        "legend": {},
        "tableOptions": {
          "verticalTimeAxis": true,
          "sortBy": {
            "internalName": "time",
            "displayName": "",
            "visible": true
          },
          "wrapping": "truncate",
          "fixFirstColumn": true
        },
        "fieldOptions": [
          {
            "internalName": "time",
            "displayName": "",
            "visible": true
          }
        ],
        "timeFormat": "MM/DD/YYYY HH:mm:ss",
        "decimalPlaces": {
          "isEnforced": true,
          "digits": 2
        },
        "note": "",
        "noteVisibility": "default",
        "links": {
          "self": "/chronograf/v1/dashboards/2/cells/9dcd3fad-3b1f-4058-b6b3-3e8a62395e66"
        }
      },
      {
        "i": "377c97d3-d136-484b-897a-cacbb670658c",
        "x": 0,
        "y": 8,
        "w": 4,
        "h": 2,
        "name": "Opened Transactions",
        "queries": [
          {
            "query": "SELECT started.count - committed.count - rollbacks.count FROM \"telegraf\".\"autogen\".\"neo4j.transaction\" WHERE time > :dashboardTime: AND time < :upperDashboardTime: AND \"host\"='docker_neo4j'",
            "queryConfig": {
              "database": "",
              "measurement": "",
              "retentionPolicy": "",
              "fields": [],
              "tags": {},
              "groupBy": {
                "time": "",
                "tags": []
              },
              "areTagsAccepted": false,
              "rawText": "SELECT started.count - committed.count - rollbacks.count FROM \"telegraf\".\"autogen\".\"neo4j.transaction\" WHERE time > :dashboardTime: AND time < :upperDashboardTime: AND \"host\"='docker_neo4j'",
              "range": null,
              "shifts": null
            },
            "source": "",
            "type": "influxql"
          }
        ],
        "axes": {
          "x": {
            "bounds": ["", ""],
            "label": "",
            "prefix": "",
            "suffix": "",
            "base": "10",
            "scale": "linear"
          },
          "y": {
            "bounds": ["", ""],
            "label": "",
            "prefix": "",
            "suffix": "",
            "base": "10",
            "scale": "linear"
          },
          "y2": {
            "bounds": ["", ""],
            "label": "",
            "prefix": "",
            "suffix": "",
            "base": "10",
            "scale": "linear"
          }
        },
        "type": "line-plus-single-stat",
        "colors": [
          {
            "id": "base",
            "type": "scale",
            "hex": "#31C0F6",
            "name": "Nineteen Eighty Four",
            "value": "0"
          },
          {
            "id": "6b87716d-6675-45d2-9790-98063950bfa4",
            "type": "scale",
            "hex": "#A500A5",
            "name": "Nineteen Eighty Four",
            "value": "0"
          },
          {
            "id": "39de9a1b-9650-40f0-a940-70a688dd40c8",
            "type": "scale",
            "hex": "#FF7E27",
            "name": "Nineteen Eighty Four",
            "value": "0"
          }
        ],
        "legend": {},
        "tableOptions": {
          "verticalTimeAxis": true,
          "sortBy": {
            "internalName": "time",
            "displayName": "",
            "visible": true
          },
          "wrapping": "truncate",
          "fixFirstColumn": true
        },
        "fieldOptions": [
          {
            "internalName": "time",
            "displayName": "",
            "visible": true
          }
        ],
        "timeFormat": "MM/DD/YYYY HH:mm:ss",
        "decimalPlaces": {
          "isEnforced": true,
          "digits": 2
        },
        "note": "",
        "noteVisibility": "default",
        "links": {
          "self": "/chronograf/v1/dashboards/2/cells/377c97d3-d136-484b-897a-cacbb670658c"
        }
      },
      {
        "i": "11b7b6f7-d798-4b1f-bf4e-318dd8966b9e",
        "x": 0,
        "y": 6,
        "w": 4,
        "h": 2,
        "name": "Page Cache",
        "queries": [
          {
            "query": "SELECT mean(\"page_faults.count\") AS \"mean_page_faults.count\", mean(\"hits.count\") AS \"mean_hits.count\", mean(\"flushes.count\") AS \"mean_flushes.count\", mean(\"evictions.count\") AS \"mean_evictions.count\", mean(\"eviction_exceptions.count\") AS \"mean_eviction_exceptions.count\" FROM \"telegraf\".\"autogen\".\"neo4j.page_cache\" WHERE time > :dashboardTime: AND time < :upperDashboardTime: GROUP BY time(:interval:) FILL(null)",
            "queryConfig": {
              "database": "telegraf",
              "measurement": "neo4j.page_cache",
              "retentionPolicy": "autogen",
              "fields": [
                {
                  "value": "mean",
                  "type": "func",
                  "alias": "mean_page_faults.count",
                  "args": [
                    {
                      "value": "page_faults.count",
                      "type": "field",
                      "alias": ""
                    }
                  ]
                },
                {
                  "value": "mean",
                  "type": "func",
                  "alias": "mean_hits.count",
                  "args": [
                    {
                      "value": "hits.count",
                      "type": "field",
                      "alias": ""
                    }
                  ]
                },
                {
                  "value": "mean",
                  "type": "func",
                  "alias": "mean_flushes.count",
                  "args": [
                    {
                      "value": "flushes.count",
                      "type": "field",
                      "alias": ""
                    }
                  ]
                },
                {
                  "value": "mean",
                  "type": "func",
                  "alias": "mean_evictions.count",
                  "args": [
                    {
                      "value": "evictions.count",
                      "type": "field",
                      "alias": ""
                    }
                  ]
                },
                {
                  "value": "mean",
                  "type": "func",
                  "alias": "mean_eviction_exceptions.count",
                  "args": [
                    {
                      "value": "eviction_exceptions.count",
                      "type": "field",
                      "alias": ""
                    }
                  ]
                }
              ],
              "tags": {},
              "groupBy": {
                "time": "auto",
                "tags": []
              },
              "areTagsAccepted": false,
              "fill": "null",
              "rawText": null,
              "range": null,
              "shifts": null
            },
            "source": "",
            "type": "influxql"
          }
        ],
        "axes": {
          "x": {
            "bounds": ["", ""],
            "label": "",
            "prefix": "",
            "suffix": "",
            "base": "10",
            "scale": "linear"
          },
          "y": {
            "bounds": ["", ""],
            "label": "",
            "prefix": "",
            "suffix": "",
            "base": "10",
            "scale": "linear"
          },
          "y2": {
            "bounds": ["", ""],
            "label": "",
            "prefix": "",
            "suffix": "",
            "base": "10",
            "scale": "linear"
          }
        },
        "type": "line",
        "colors": [
          {
            "id": "207e30f0-6254-4460-9d56-7ae6121c7f18",
            "type": "scale",
            "hex": "#31C0F6",
            "name": "Nineteen Eighty Four",
            "value": "0"
          },
          {
            "id": "6b87716d-6675-45d2-9790-98063950bfa4",
            "type": "scale",
            "hex": "#A500A5",
            "name": "Nineteen Eighty Four",
            "value": "0"
          },
          {
            "id": "39de9a1b-9650-40f0-a940-70a688dd40c8",
            "type": "scale",
            "hex": "#FF7E27",
            "name": "Nineteen Eighty Four",
            "value": "0"
          }
        ],
        "legend": {},
        "tableOptions": {
          "verticalTimeAxis": true,
          "sortBy": {
            "internalName": "time",
            "displayName": "",
            "visible": true
          },
          "wrapping": "truncate",
          "fixFirstColumn": true
        },
        "fieldOptions": [
          {
            "internalName": "time",
            "displayName": "",
            "visible": true
          }
        ],
        "timeFormat": "MM/DD/YYYY HH:mm:ss",
        "decimalPlaces": {
          "isEnforced": true,
          "digits": 2
        },
        "note": "",
        "noteVisibility": "default",
        "links": {
          "self": "/chronograf/v1/dashboards/2/cells/11b7b6f7-d798-4b1f-bf4e-318dd8966b9e"
        }
      },
      {
        "i": "eaab2eee-0321-4e06-a3d9-06ffa363d5ac",
        "x": 0,
        "y": 4,
        "w": 4,
        "h": 2,
        "name": "Number of relationship types",
        "queries": [
          {
            "query": "SELECT mean(\"relationship_type\") AS \"mean_relationship_type\", max(\"relationship_type\") AS \"max_relationship_type\" FROM \"telegraf\".\"autogen\".\"neo4j.ids_in_use\" WHERE time > :dashboardTime: AND time < :upperDashboardTime: AND \"host\"='docker_neo4j' GROUP BY time(:interval:) FILL(none)",
            "queryConfig": {
              "database": "telegraf",
              "measurement": "neo4j.ids_in_use",
              "retentionPolicy": "autogen",
              "fields": [
                {
                  "value": "mean",
                  "type": "func",
                  "alias": "mean_relationship_type",
                  "args": [
                    {
                      "value": "relationship_type",
                      "type": "field",
                      "alias": ""
                    }
                  ]
                },
                {
                  "value": "max",
                  "type": "func",
                  "alias": "max_relationship_type",
                  "args": [
                    {
                      "value": "relationship_type",
                      "type": "field",
                      "alias": ""
                    }
                  ]
                }
              ],
              "tags": {
                "host": ["docker_neo4j"]
              },
              "groupBy": {
                "time": "auto",
                "tags": []
              },
              "areTagsAccepted": true,
              "fill": "none",
              "rawText": null,
              "range": null,
              "shifts": null
            },
            "source": "",
            "type": "influxql"
          }
        ],
        "axes": {
          "x": {
            "bounds": ["", ""],
            "label": "",
            "prefix": "",
            "suffix": "",
            "base": "10",
            "scale": "linear"
          },
          "y": {
            "bounds": ["", ""],
            "label": "",
            "prefix": "",
            "suffix": "",
            "base": "10",
            "scale": "linear"
          },
          "y2": {
            "bounds": ["", ""],
            "label": "",
            "prefix": "",
            "suffix": "",
            "base": "10",
            "scale": "linear"
          }
        },
        "type": "line-plus-single-stat",
        "colors": [
          {
            "id": "base",
            "type": "scale",
            "hex": "#31C0F6",
            "name": "Nineteen Eighty Four",
            "value": "0"
          },
          {
            "id": "6b87716d-6675-45d2-9790-98063950bfa4",
            "type": "scale",
            "hex": "#A500A5",
            "name": "Nineteen Eighty Four",
            "value": "0"
          },
          {
            "id": "39de9a1b-9650-40f0-a940-70a688dd40c8",
            "type": "scale",
            "hex": "#FF7E27",
            "name": "Nineteen Eighty Four",
            "value": "0"
          }
        ],
        "legend": {},
        "tableOptions": {
          "verticalTimeAxis": true,
          "sortBy": {
            "internalName": "time",
            "displayName": "",
            "visible": true
          },
          "wrapping": "truncate",
          "fixFirstColumn": true
        },
        "fieldOptions": [
          {
            "internalName": "time",
            "displayName": "",
            "visible": true
          }
        ],
        "timeFormat": "MM/DD/YYYY HH:mm:ss",
        "decimalPlaces": {
          "isEnforced": true,
          "digits": 2
        },
        "note": "",
        "noteVisibility": "default",
        "links": {
          "self": "/chronograf/v1/dashboards/2/cells/eaab2eee-0321-4e06-a3d9-06ffa363d5ac"
        }
      },
      {
        "i": "6b19ceb4-9687-4d39-840b-c4a10cb802a8",
        "x": 0,
        "y": 2,
        "w": 4,
        "h": 2,
        "name": "Number of relationships",
        "queries": [
          {
            "query": "SELECT mean(\"relationship\") AS \"mean_relationship\" FROM \"telegraf\".\"autogen\".\"neo4j.ids_in_use\" WHERE time > :dashboardTime: AND time < :upperDashboardTime: AND \"host\"='docker_neo4j' GROUP BY time(:interval:) FILL(none)",
            "queryConfig": {
              "database": "telegraf",
              "measurement": "neo4j.ids_in_use",
              "retentionPolicy": "autogen",
              "fields": [
                {
                  "value": "mean",
                  "type": "func",
                  "alias": "mean_relationship",
                  "args": [
                    {
                      "value": "relationship",
                      "type": "field",
                      "alias": ""
                    }
                  ]
                }
              ],
              "tags": {
                "host": ["docker_neo4j"]
              },
              "groupBy": {
                "time": "auto",
                "tags": []
              },
              "areTagsAccepted": true,
              "fill": "none",
              "rawText": null,
              "range": null,
              "shifts": null
            },
            "source": "",
            "type": "influxql"
          }
        ],
        "axes": {
          "x": {
            "bounds": ["", ""],
            "label": "",
            "prefix": "",
            "suffix": "",
            "base": "10",
            "scale": "linear"
          },
          "y": {
            "bounds": ["", ""],
            "label": "",
            "prefix": "",
            "suffix": "",
            "base": "10",
            "scale": "linear"
          },
          "y2": {
            "bounds": ["", ""],
            "label": "",
            "prefix": "",
            "suffix": "",
            "base": "10",
            "scale": "linear"
          }
        },
        "type": "line-plus-single-stat",
        "colors": [
          {
            "id": "base",
            "type": "scale",
            "hex": "#31C0F6",
            "name": "Nineteen Eighty Four",
            "value": "0"
          },
          {
            "id": "6b87716d-6675-45d2-9790-98063950bfa4",
            "type": "scale",
            "hex": "#A500A5",
            "name": "Nineteen Eighty Four",
            "value": "0"
          },
          {
            "id": "39de9a1b-9650-40f0-a940-70a688dd40c8",
            "type": "scale",
            "hex": "#FF7E27",
            "name": "Nineteen Eighty Four",
            "value": "0"
          }
        ],
        "legend": {},
        "tableOptions": {
          "verticalTimeAxis": true,
          "sortBy": {
            "internalName": "time",
            "displayName": "",
            "visible": true
          },
          "wrapping": "truncate",
          "fixFirstColumn": true
        },
        "fieldOptions": [
          {
            "internalName": "time",
            "displayName": "",
            "visible": true
          }
        ],
        "timeFormat": "MM/DD/YYYY HH:mm:ss",
        "decimalPlaces": {
          "isEnforced": true,
          "digits": 2
        },
        "note": "",
        "noteVisibility": "default",
        "links": {
          "self": "/chronograf/v1/dashboards/2/cells/6b19ceb4-9687-4d39-840b-c4a10cb802a8"
        }
      },
      {
        "i": "4d715ca7-a906-40fd-ba3a-23f591583a26",
        "x": 0,
        "y": 0,
        "w": 4,
        "h": 2,
        "name": "Number of Nodes",
        "queries": [
          {
            "query": "SELECT max(\"node\") AS \"max_node\" FROM \"telegraf\".\"autogen\".\"neo4j.ids_in_use\" WHERE time > :dashboardTime: AND time < :upperDashboardTime: AND \"host\"='docker_neo4j' GROUP BY time(:interval:) FILL(none)",
            "queryConfig": {
              "database": "telegraf",
              "measurement": "neo4j.ids_in_use",
              "retentionPolicy": "autogen",
              "fields": [
                {
                  "value": "max",
                  "type": "func",
                  "alias": "max_node",
                  "args": [
                    {
                      "value": "node",
                      "type": "field",
                      "alias": ""
                    }
                  ]
                }
              ],
              "tags": {
                "host": ["docker_neo4j"]
              },
              "groupBy": {
                "time": "auto",
                "tags": []
              },
              "areTagsAccepted": true,
              "fill": "none",
              "rawText": null,
              "range": null,
              "shifts": null
            },
            "source": "",
            "type": "influxql"
          }
        ],
        "axes": {
          "x": {
            "bounds": ["", ""],
            "label": "",
            "prefix": "",
            "suffix": "",
            "base": "10",
            "scale": "linear"
          },
          "y": {
            "bounds": ["", ""],
            "label": "",
            "prefix": "",
            "suffix": "",
            "base": "10",
            "scale": "linear"
          },
          "y2": {
            "bounds": ["", ""],
            "label": "",
            "prefix": "",
            "suffix": "",
            "base": "10",
            "scale": "linear"
          }
        },
        "type": "line-plus-single-stat",
        "colors": [
          {
            "id": "base",
            "type": "scale",
            "hex": "#31C0F6",
            "name": "Nineteen Eighty Four",
            "value": "0"
          },
          {
            "id": "6b87716d-6675-45d2-9790-98063950bfa4",
            "type": "scale",
            "hex": "#A500A5",
            "name": "Nineteen Eighty Four",
            "value": "0"
          },
          {
            "id": "39de9a1b-9650-40f0-a940-70a688dd40c8",
            "type": "scale",
            "hex": "#FF7E27",
            "name": "Nineteen Eighty Four",
            "value": "0"
          }
        ],
        "legend": {},
        "tableOptions": {
          "verticalTimeAxis": true,
          "sortBy": {
            "internalName": "time",
            "displayName": "",
            "visible": true
          },
          "wrapping": "truncate",
          "fixFirstColumn": true
        },
        "fieldOptions": [
          {
            "internalName": "time",
            "displayName": "",
            "visible": true
          }
        ],
        "timeFormat": "MM/DD/YYYY HH:mm:ss",
        "decimalPlaces": {
          "isEnforced": true,
          "digits": 2
        },
        "note": "",
        "noteVisibility": "default",
        "links": {
          "self": "/chronograf/v1/dashboards/2/cells/4d715ca7-a906-40fd-ba3a-23f591583a26"
        }
      },
      {
        "i": "47538ca0-a7e1-4d04-b250-3655cd6a0ade",
        "x": 4,
        "y": 5,
        "w": 4,
        "h": 5,
        "name": "Transactions",
        "queries": [
          {
            "query": "SELECT DIFFERENCE(last(\"started.count\")) AS \"startedt\" FROM \"telegraf\".\"autogen\".\"neo4j.transaction\" WHERE time > :dashboardTime: AND time < :upperDashboardTime: AND \"host\"='docker_neo4j' GROUP BY time(:interval:)",
            "queryConfig": {
              "database": "",
              "measurement": "",
              "retentionPolicy": "",
              "fields": [],
              "tags": {},
              "groupBy": {
                "time": "",
                "tags": []
              },
              "areTagsAccepted": false,
              "rawText": "SELECT DIFFERENCE(last(\"started.count\")) AS \"startedt\" FROM \"telegraf\".\"autogen\".\"neo4j.transaction\" WHERE time > :dashboardTime: AND time < :upperDashboardTime: AND \"host\"='docker_neo4j' GROUP BY time(:interval:)",
              "range": null,
              "shifts": null
            },
            "source": "",
            "type": "influxql"
          }
        ],
        "axes": {
          "x": {
            "bounds": ["", ""],
            "label": "",
            "prefix": "",
            "suffix": "",
            "base": "10",
            "scale": "linear"
          },
          "y": {
            "bounds": ["", ""],
            "label": "",
            "prefix": "",
            "suffix": "",
            "base": "10",
            "scale": "linear"
          },
          "y2": {
            "bounds": ["", ""],
            "label": "",
            "prefix": "",
            "suffix": "",
            "base": "10",
            "scale": "linear"
          }
        },
        "type": "line",
        "colors": [
          {
            "id": "207e30f0-6254-4460-9d56-7ae6121c7f18",
            "type": "scale",
            "hex": "#31C0F6",
            "name": "Nineteen Eighty Four",
            "value": "0"
          },
          {
            "id": "6b87716d-6675-45d2-9790-98063950bfa4",
            "type": "scale",
            "hex": "#A500A5",
            "name": "Nineteen Eighty Four",
            "value": "0"
          },
          {
            "id": "39de9a1b-9650-40f0-a940-70a688dd40c8",
            "type": "scale",
            "hex": "#FF7E27",
            "name": "Nineteen Eighty Four",
            "value": "0"
          }
        ],
        "legend": {},
        "tableOptions": {
          "verticalTimeAxis": true,
          "sortBy": {
            "internalName": "time",
            "displayName": "",
            "visible": true
          },
          "wrapping": "truncate",
          "fixFirstColumn": true
        },
        "fieldOptions": [
          {
            "internalName": "time",
            "displayName": "",
            "visible": true
          }
        ],
        "timeFormat": "MM/DD/YYYY HH:mm:ss",
        "decimalPlaces": {
          "isEnforced": true,
          "digits": 2
        },
        "note": "",
        "noteVisibility": "default",
        "links": {
          "self": "/chronograf/v1/dashboards/2/cells/47538ca0-a7e1-4d04-b250-3655cd6a0ade"
        }
      },
      {
        "i": "8d3e423a-a55e-4eb1-ab56-859bca6e1234",
        "x": 8,
        "y": 0,
        "w": 4,
        "h": 5,
        "name": "JVM GC Time",
        "queries": [
          {
            "query": "SELECT DIFFERENCE(\"time.g1_young_generation.count\") AS \"mean_time.g1_young_generation\",\n       DIFFERENCE(\"time.g1_old_generation.count\") AS \"mean_time.g1_old_generation\"\nFROM \"telegraf\".\"autogen\".\"vm.gc\"\nWHERE time > :dashboardTime:",
            "queryConfig": {
              "database": "",
              "measurement": "",
              "retentionPolicy": "",
              "fields": [],
              "tags": {},
              "groupBy": {
                "time": "",
                "tags": []
              },
              "areTagsAccepted": false,
              "rawText": "SELECT DIFFERENCE(\"time.g1_young_generation.count\") AS \"mean_time.g1_young_generation\",\n       DIFFERENCE(\"time.g1_old_generation.count\") AS \"mean_time.g1_old_generation\"\nFROM \"telegraf\".\"autogen\".\"vm.gc\"\nWHERE time > :dashboardTime:",
              "range": null,
              "shifts": null
            },
            "source": "",
            "type": "influxql"
          }
        ],
        "axes": {
          "x": {
            "bounds": ["", ""],
            "label": "",
            "prefix": "",
            "suffix": "",
            "base": "10",
            "scale": "linear"
          },
          "y": {
            "bounds": ["", ""],
            "label": "",
            "prefix": "",
            "suffix": "",
            "base": "10",
            "scale": "linear"
          },
          "y2": {
            "bounds": ["", ""],
            "label": "",
            "prefix": "",
            "suffix": "",
            "base": "10",
            "scale": "linear"
          }
        },
        "type": "line",
        "colors": [
          {
            "id": "207e30f0-6254-4460-9d56-7ae6121c7f18",
            "type": "scale",
            "hex": "#31C0F6",
            "name": "Nineteen Eighty Four",
            "value": "0"
          },
          {
            "id": "6b87716d-6675-45d2-9790-98063950bfa4",
            "type": "scale",
            "hex": "#A500A5",
            "name": "Nineteen Eighty Four",
            "value": "0"
          },
          {
            "id": "39de9a1b-9650-40f0-a940-70a688dd40c8",
            "type": "scale",
            "hex": "#FF7E27",
            "name": "Nineteen Eighty Four",
            "value": "0"
          }
        ],
        "legend": {},
        "tableOptions": {
          "verticalTimeAxis": true,
          "sortBy": {
            "internalName": "time",
            "displayName": "",
            "visible": true
          },
          "wrapping": "truncate",
          "fixFirstColumn": true
        },
        "fieldOptions": [
          {
            "internalName": "time",
            "displayName": "",
            "visible": true
          }
        ],
        "timeFormat": "MM/DD/YYYY HH:mm:ss",
        "decimalPlaces": {
          "isEnforced": true,
          "digits": 2
        },
        "note": "",
        "noteVisibility": "default",
        "links": {
          "self": "/chronograf/v1/dashboards/2/cells/8d3e423a-a55e-4eb1-ab56-859bca6e1234"
        }
      },
      {
        "i": "ea91a084-d7bd-438c-bf63-46e34f96c4c2",
        "x": 8,
        "y": 5,
        "w": 4,
        "h": 5,
        "name": "JVM Threads",
        "queries": [
          {
            "query": "SELECT mean(\"total\") AS \"mean_total\" FROM \"telegraf\".\"autogen\".\"vm.thread\" WHERE time > :dashboardTime: AND time < :upperDashboardTime: AND \"host\"='docker_neo4j' GROUP BY time(:interval:) FILL(null)",
            "queryConfig": {
              "database": "telegraf",
              "measurement": "vm.thread",
              "retentionPolicy": "autogen",
              "fields": [
                {
                  "value": "mean",
                  "type": "func",
                  "alias": "mean_total",
                  "args": [
                    {
                      "value": "total",
                      "type": "field",
                      "alias": ""
                    }
                  ]
                }
              ],
              "tags": {
                "host": ["docker_neo4j"]
              },
              "groupBy": {
                "time": "auto",
                "tags": []
              },
              "areTagsAccepted": true,
              "fill": "null",
              "rawText": null,
              "range": null,
              "shifts": null
            },
            "source": "",
            "type": "influxql"
          }
        ],
        "axes": {
          "x": {
            "bounds": ["", ""],
            "label": "",
            "prefix": "",
            "suffix": "",
            "base": "10",
            "scale": "linear"
          },
          "y": {
            "bounds": ["", ""],
            "label": "",
            "prefix": "",
            "suffix": "",
            "base": "10",
            "scale": "linear"
          },
          "y2": {
            "bounds": ["", ""],
            "label": "",
            "prefix": "",
            "suffix": "",
            "base": "10",
            "scale": "linear"
          }
        },
        "type": "line",
        "colors": [
          {
            "id": "207e30f0-6254-4460-9d56-7ae6121c7f18",
            "type": "scale",
            "hex": "#31C0F6",
            "name": "Nineteen Eighty Four",
            "value": "0"
          },
          {
            "id": "6b87716d-6675-45d2-9790-98063950bfa4",
            "type": "scale",
            "hex": "#A500A5",
            "name": "Nineteen Eighty Four",
            "value": "0"
          },
          {
            "id": "39de9a1b-9650-40f0-a940-70a688dd40c8",
            "type": "scale",
            "hex": "#FF7E27",
            "name": "Nineteen Eighty Four",
            "value": "0"
          }
        ],
        "legend": {},
        "tableOptions": {
          "verticalTimeAxis": true,
          "sortBy": {
            "internalName": "time",
            "displayName": "",
            "visible": true
          },
          "wrapping": "truncate",
          "fixFirstColumn": true
        },
        "fieldOptions": [
          {
            "internalName": "time",
            "displayName": "",
            "visible": true
          }
        ],
        "timeFormat": "MM/DD/YYYY HH:mm:ss",
        "decimalPlaces": {
          "isEnforced": true,
          "digits": 2
        },
        "note": "",
        "noteVisibility": "default",
        "links": {
          "self": "/chronograf/v1/dashboards/2/cells/ea91a084-d7bd-438c-bf63-46e34f96c4c2"
        }
      }
    ],
    "templates": [],
    "name": "neo4j-telegraf",
    "organization": "default",
    "links": {
      "self": "/chronograf/v1/dashboards/2",
      "cells": "/chronograf/v1/dashboards/2/cells",
      "templates": "/chronograf/v1/dashboards/2/templates"
    }
  }
}
